%YAML 1.1
%TAG !u! tag:unity3d.com,2011:
--- !u!114 &11400000
MonoBehaviour:
  m_ObjectHideFlags: 0
  m_CorrespondingSourceObject: {fileID: 0}
  m_PrefabInstance: {fileID: 0}
  m_PrefabAsset: {fileID: 0}
  m_GameObject: {fileID: 0}
  m_Enabled: 1
  m_EditorHideFlags: 0
  m_Script: {fileID: 11500000, guid: 95e66c6366d904e98bc83428217d4fd7, type: 3}
  m_Name: CapsuleRotation
  m_EditorClassIdentifier: 
  _data:
    _json: '{"graph":{"variables":{"Kind":"Flow","collection":{"$content":[],"$version":"A"},"$version":"A"},"controlInputDefinitions":[],"controlOutputDefinitions":[],"valueInputDefinitions":[],"valueOutputDefinitions":[],"title":"Rotation","summary":null,"pan":{"x":-27.74994,"y":120.0},"zoom":1.0,"elements":[{"coroutine":false,"defaultValues":{},"position":{"x":-389.0,"y":-203.0},"guid":"f94642ab-9303-4a3a-ae19-454a478ca939","$version":"A","$type":"Unity.VisualScripting.Start"},{"defaultValues":{},"position":{"x":-26.0,"y":201.0},"guid":"d5db1260-d1ee-4cc1-b6da-68545227b4d6","$version":"A","$type":"Unity.VisualScripting.GenericMultiply","$id":"11"},{"member":{"name":"deltaTime","parameterTypes":null,"targetType":"UnityEngine.Time","targetTypeName":"UnityEngine.Time","$version":"A"},"defaultValues":{},"position":{"x":-334.0,"y":275.0},"guid":"db50cd71-92d9-4b80-8662-6a43abb8e1b7","$version":"A","$type":"Unity.VisualScripting.GetMember","$id":"13"},{"chainable":false,"parameterNames":["eulers"],"member":{"name":"Rotate","parameterTypes":["UnityEngine.Vector3"],"targetType":"UnityEngine.Transform","targetTypeName":"UnityEngine.Transform","$version":"A"},"defaultValues":{"target":null,"%eulers":{"x":0.0,"y":0.0,"z":0.0,"$type":"UnityEngine.Vector3"}},"position":{"x":283.0,"y":-84.0},"guid":"756d0506-2c7e-4896-9d0e-2cae29afed91","$version":"A","$type":"Unity.VisualScripting.InvokeMember","$id":"16"},{"defaultValues":{},"position":{"x":124.0,"y":82.0},"guid":"03db6c64-b0b3-4d29-b4dd-47f8a87e49d4","$version":"A","$type":"Unity.VisualScripting.GenericMultiply","$id":"20"},{"specifyFallback":false,"kind":"Object","defaultValues":{"name":{"$content":"MoveAxis","$type":"System.String"},"object":null},"position":{"x":-474.0,"y":66.0},"guid":"331fd512-292a-4ba2-9f8a-797fc33abc41","$version":"A","$type":"Unity.VisualScripting.GetVariable","$id":"22"},{"chainable":false,"parameterNames":["vector","maxLength"],"member":{"name":"ClampMagnitude","parameterTypes":["UnityEngine.Vector3","System.Single"],"targetType":"UnityEngine.Vector3","targetTypeName":"UnityEngine.Vector3","$version":"A"},"defaultValues":{"%vector":{"x":0.0,"y":0.0,"z":0.0,"$type":"UnityEngine.Vector3"},"%maxLength":{"$content":1.0,"$type":"System.Single"}},"position":{"x":-144.0,"y":-81.0},"guid":"8c9072b1-a2d2-4585-aaea-70c45b143a66","$version":"A","$type":"Unity.VisualScripting.InvokeMember","$id":"24"},{"coroutine":false,"defaultValues":{},"position":{"x":-396.0,"y":-84.0},"guid":"b6081f44-0763-486f-83be-4072a74ce008","$version":"A","$type":"Unity.VisualScripting.Update","$id":"28"},{"specifyFallback":false,"kind":"Object","defaultValues":{"name":{"$content":"RotationSpeed","$type":"System.String"},"object":null},"position":{"x":-247.0,"y":101.0},"guid":"0e3c337c-a11d-4bbb-9eed-6db2a1bccf7a","$version":"A","$type":"Unity.VisualScripting.GetVariable","$id":"30"},{"sourceUnit":{"$ref":"28"},"sourceKey":"trigger","destinationUnit":{"$ref":"24"},"destinationKey":"enter","guid":"fc8f26a9-8cf6-41f5-bf57-e5e479f07591","$type":"Unity.VisualScripting.ControlConnection"},{"sourceUnit":{"$ref":"24"},"sourceKey":"exit","destinationUnit":{"$ref":"16"},"destinationKey":"enter","guid":"08e63edb-a739-4f0f-9e78-979e6d3da1e1","$type":"Unity.VisualScripting.ControlConnection"},{"sourceUnit":{"$ref":"22"},"sourceKey":"value","destinationUnit":{"$ref":"24"},"destinationKey":"%vector","guid":"1e9b4191-994e-4bc3-9af9-94886b19e071","$type":"Unity.VisualScripting.ValueConnection"},{"sourceUnit":{"$ref":"13"},"sourceKey":"value","destinationUnit":{"$ref":"11"},"destinationKey":"b","guid":"4509a71d-1656-442f-8896-3866afca45da","$type":"Unity.VisualScripting.ValueConnection"},{"sourceUnit":{"$ref":"30"},"sourceKey":"value","destinationUnit":{"$ref":"11"},"destinationKey":"a","guid":"449fe581-0ac4-4320-bc7b-79b5c2132b69","$type":"Unity.VisualScripting.ValueConnection"},{"sourceUnit":{"$ref":"11"},"sourceKey":"product","destinationUnit":{"$ref":"20"},"destinationKey":"b","guid":"05670f86-ba09-4b0a-ab2b-271bc69fcd42","$type":"Unity.VisualScripting.ValueConnection"},{"sourceUnit":{"$ref":"24"},"sourceKey":"result","destinationUnit":{"$ref":"20"},"destinationKey":"a","guid":"c2a4607c-0861-42af-a1a3-f7ab288fa46b","$type":"Unity.VisualScripting.ValueConnection"},{"sourceUnit":{"$ref":"20"},"sourceKey":"product","destinationUnit":{"$ref":"16"},"destinationKey":"%eulers","guid":"9d7f8af5-8fb8-478b-bdcd-ec879300397b","$type":"Unity.VisualScripting.ValueConnection"}],"$version":"A"}}'
    _objectReferences: []
