%YAML 1.1
%TAG !u! tag:unity3d.com,2011:
--- !u!114 &11400000
MonoBehaviour:
  m_ObjectHideFlags: 0
  m_CorrespondingSourceObject: {fileID: 0}
  m_PrefabInstance: {fileID: 0}
  m_PrefabAsset: {fileID: 0}
  m_GameObject: {fileID: 0}
  m_Enabled: 1
  m_EditorHideFlags: 0
  m_Script: {fileID: 11500000, guid: 95e66c6366d904e98bc83428217d4fd7, type: 3}
  m_Name: Scale
  m_EditorClassIdentifier: 
  _data:
    _json: '{"graph":{"variables":{"Kind":"Flow","collection":{"$content":[],"$version":"A"},"$version":"A"},"controlInputDefinitions":[],"controlOutputDefinitions":[],"valueInputDefinitions":[],"valueOutputDefinitions":[],"title":"Scale","summary":null,"pan":{"x":-23.55292,"y":18.57062},"zoom":0.85,"elements":[{"coroutine":false,"defaultValues":{},"position":{"x":-461.0,"y":-225.0},"guid":"74e3fd41-d626-41ff-8469-d79f183e6ac4","$version":"A","$type":"Unity.VisualScripting.Update","$id":"9"},{"specifyFallback":false,"kind":"Object","defaultValues":{"name":{"$content":"ScaleAxis","$type":"System.String"},"object":null},"position":{"x":-498.0,"y":-119.0},"guid":"f9f71792-3111-4787-a643-d1269338e432","$version":"A","$type":"Unity.VisualScripting.GetVariable","$id":"11"},{"inputCount":2,"defaultValues":{},"position":{"x":137.0,"y":-34.0},"guid":"56ad9656-056c-448d-8f37-57c80bb315ae","$version":"A","$type":"Unity.VisualScripting.GenericSum","$id":"13"},{"specifyFallback":false,"kind":"Object","defaultValues":{"name":{"$content":"ScaleSpeed","$type":"System.String"},"object":null},"position":{"x":-474.0,"y":33.0},"guid":"e9847965-9469-48db-8943-d0bdb24e0614","$version":"A","$type":"Unity.VisualScripting.GetVariable","$id":"15"},{"defaultValues":{},"position":{"x":-33.0,"y":69.0},"guid":"1a89513b-bb31-4959-9bef-f56ce3a1caf3","$version":"A","$type":"Unity.VisualScripting.GenericMultiply","$id":"17"},{"chainable":false,"parameterNames":["vector","maxLength"],"member":{"name":"ClampMagnitude","parameterTypes":["UnityEngine.Vector3","System.Single"],"targetType":"UnityEngine.Vector3","targetTypeName":"UnityEngine.Vector3","$version":"A"},"defaultValues":{"%vector":{"x":0.0,"y":0.0,"z":0.0,"$type":"UnityEngine.Vector3"},"%maxLength":{"$content":1.0,"$type":"System.Single"}},"position":{"x":-259.0,"y":-227.0},"guid":"6a0d3f08-c893-45aa-bb50-d8ae42ac00c9","$version":"A","$type":"Unity.VisualScripting.InvokeMember","$id":"19"},{"defaultValues":{},"position":{"x":-248.0,"y":116.0},"guid":"c7b05071-d1bb-41f7-9803-25bfc8d9920f","$version":"A","$type":"Unity.VisualScripting.GenericMultiply","$id":"23"},{"member":{"name":"localScale","parameterTypes":null,"targetType":"UnityEngine.Transform","targetTypeName":"UnityEngine.Transform","$version":"A"},"defaultValues":{"target":null},"position":{"x":0.0,"y":-139.0},"guid":"4ddda9de-bc46-4172-9b3c-53d30aedad61","$version":"A","$type":"Unity.VisualScripting.GetMember","$id":"25"},{"chainable":false,"member":{"name":"localScale","parameterTypes":null,"targetType":"UnityEngine.Transform","targetTypeName":"UnityEngine.Transform","$version":"A"},"defaultValues":{"target":null,"input":{"x":0.0,"y":0.0,"z":0.0,"$type":"UnityEngine.Vector3"}},"position":{"x":277.0,"y":-231.0},"guid":"7a3b5c60-2580-4e90-8d6c-7030f033933c","$version":"A","$type":"Unity.VisualScripting.SetMember","$id":"28"},{"member":{"name":"deltaTime","parameterTypes":null,"targetType":"UnityEngine.Time","targetTypeName":"UnityEngine.Time","$version":"A"},"defaultValues":{},"position":{"x":-465.0,"y":179.0},"guid":"21b8bd83-f494-4918-a0f1-a979070fd543","$version":"A","$type":"Unity.VisualScripting.GetMember","$id":"31"},{"sourceUnit":{"$ref":"9"},"sourceKey":"trigger","destinationUnit":{"$ref":"19"},"destinationKey":"enter","guid":"3c982768-fa55-4b5f-82fa-79aa2ec90970","$type":"Unity.VisualScripting.ControlConnection"},{"sourceUnit":{"$ref":"19"},"sourceKey":"exit","destinationUnit":{"$ref":"28"},"destinationKey":"assign","guid":"a91da595-cc9b-4001-a602-f237f54b2542","$type":"Unity.VisualScripting.ControlConnection"},{"sourceUnit":{"$ref":"11"},"sourceKey":"value","destinationUnit":{"$ref":"19"},"destinationKey":"%vector","guid":"1d843497-2307-425a-8398-8deb6e492b59","$type":"Unity.VisualScripting.ValueConnection"},{"sourceUnit":{"$ref":"31"},"sourceKey":"value","destinationUnit":{"$ref":"23"},"destinationKey":"b","guid":"579eb909-7fae-407d-96be-07a2646a9709","$type":"Unity.VisualScripting.ValueConnection"},{"sourceUnit":{"$ref":"15"},"sourceKey":"value","destinationUnit":{"$ref":"23"},"destinationKey":"a","guid":"3b3c8a9c-cc67-429a-b2a4-f1fa3c9d2982","$type":"Unity.VisualScripting.ValueConnection"},{"sourceUnit":{"$ref":"23"},"sourceKey":"product","destinationUnit":{"$ref":"17"},"destinationKey":"b","guid":"5532e347-0f77-4380-806e-bdf00bfced84","$type":"Unity.VisualScripting.ValueConnection"},{"sourceUnit":{"$ref":"17"},"sourceKey":"product","destinationUnit":{"$ref":"13"},"destinationKey":"1","guid":"d06d8112-efc3-4202-8d8e-cfe002245e4f","$type":"Unity.VisualScripting.ValueConnection"},{"sourceUnit":{"$ref":"13"},"sourceKey":"sum","destinationUnit":{"$ref":"28"},"destinationKey":"input","guid":"5bf2a934-9aab-4ad2-a4c3-b069921319ee","$type":"Unity.VisualScripting.ValueConnection"},{"sourceUnit":{"$ref":"25"},"sourceKey":"value","destinationUnit":{"$ref":"13"},"destinationKey":"0","guid":"6b7128bd-78b4-4b15-8b42-a567f1e68770","$type":"Unity.VisualScripting.ValueConnection"},{"sourceUnit":{"$ref":"19"},"sourceKey":"result","destinationUnit":{"$ref":"17"},"destinationKey":"a","guid":"dc1e22ca-6301-4b75-9df5-a61efb50f0d9","$type":"Unity.VisualScripting.ValueConnection"}],"$version":"A"}}'
    _objectReferences: []
